(module Ultrafit_2pins (layer F.Cu) (tedit 5B21F8A5)
  (fp_text reference REF** (at 4 -10) (layer F.SilkS)
    (effects (font (size 1 1) (thickness 0.15)))
  )
  (fp_text value Ultrafit_2pins (at 0 1.68) (layer F.Fab)
    (effects (font (size 1 1) (thickness 0.15)))
  )
  (fp_line (start -3.645 -8.41) (end 3.645 -8.41) (layer F.SilkS) (width 0.15))
  (fp_line (start 3.645 -5.35) (end 3.645 -8.41) (layer F.SilkS) (width 0.15))
  (fp_line (start -3.645 -5.35) (end -3.645 -8.41) (layer F.SilkS) (width 0.15))
  (fp_line (start 5.3 -5.35) (end 3.645 -5.35) (layer F.SilkS) (width 0.15))
  (fp_line (start -5.3 -5.35) (end -3.645 -5.35) (layer F.SilkS) (width 0.15))
  (fp_line (start 5.3 0) (end 5.3 -5.35) (layer F.SilkS) (width 0.15))
  (fp_line (start -5.3 0) (end -5.3 -5.35) (layer F.SilkS) (width 0.15))
  (fp_line (start -5.3 0) (end 5.3 0) (layer F.SilkS) (width 0.15))
  (pad 1 thru_hole circle (at -1.75 -2.93) (size 1.5 1.5) (drill 1.02) (layers *.Cu *.Mask))
  (pad 2 thru_hole circle (at 1.75 -2.93) (size 1.5 1.5) (drill 1.02) (layers *.Cu *.Mask))
  (pad "" thru_hole circle (at -4.25 -2.3) (size 2.5 2.5) (drill 2.3) (layers *.Cu *.Mask))
  (pad "" thru_hole circle (at 4.25 -2.3) (size 2.5 2.5) (drill 2.3) (layers *.Cu *.Mask))
)
